…
    ## Rows: 822 Columns: 9
    ## ── Column specification ────────────────────────────────────────────────────────
    ## Delimiter: ","
    ## dbl  (8): prez_gop, gov_gop, sen_gop, rep_gop, prez_dem, gov_dem, sen_dem, r...
    ## date (1): mon
    ## 
    ## ℹ Use `spec()` to retrieve the full column specification for this data.
    ## ℹ Specify the column types or set `show_col_types = FALSE` to quiet this message.

``` r
pols_df
```

    ## # A tibble: 822 × 9
    ##     year month    gov_gop sen_gop rep_gop gov_dem sen_dem rep_dem president
    ##    <int> <chr>      <dbl>   <dbl>   <dbl>   <dbl>   <dbl>   <dbl> <chr>    
    ##  1  1947 April         23      51     253      23      45     198 dem      
    ##  2  1947 August        23      51     253      23      45     198 dem      
    ##  3  1947 December      24      51     253      23      45     198 dem      
    ##  4  1947 February      23      51     253      23      45     198 dem      
    ##  5  1947 January       23      51     253      23      45     198 dem      
    ##  6  1947 July          23      51     253      23      45     198 dem      
    ##  7  1947 June          23      51     253      23      45     198 dem      
    ##  8  1947 March         23      51     253      23      45     198 dem      
    ##  9  1947 May           23      51     253      23      45     198 dem      
    ## 10  1947 November      24      51     253      23      45     198 dem      
    ## # ℹ 812 more rows
…
    ## Rows: 787 Columns: 2
    ## ── Column specification ────────────────────────────────────────────────────────
    ## Delimiter: ","
    ## chr (1): date
    ## dbl (1): close
    ## 
    ## ℹ Use `spec()` to retrieve the full column specification for this data.
    ## ℹ Specify the column types or set `show_col_types = FALSE` to quiet this message.

``` r
snp_df
```

    ## # A tibble: 787 × 3
    ##     year month    close
    ##    <int> <chr>    <dbl>
    ##  1  1969 April    104. 
    ##  2  1969 August    95.5
    ##  3  1969 December  92.1
    ##  4  1969 February  98.1
    ##  5  1969 January  103. 
    ##  6  1969 July      91.8
    ##  7  1969 June      97.7
    ##  8  1969 March    102. 
    ##  9  1969 May      103. 
    ## 10  1969 November  93.8
    ## # ℹ 777 more rows
…
